Tree Phenology Analysis with R
…
e. Convert the dataset back to the wide format

Show code
WHG_data_wide <- WHG_data_long %>% pivot_wider()

# Display for JDay 78
WHG_data_wide[351:374, ]

# A tibble: 24 × 6
    Year Month   Day  Hour Temp_gaps  Temp
   <int> <int> <int> <int>     <dbl> <dbl>
 1  2008     3    18     0     NA    11.4 
 2  2008     3    18     1     NA    11.2 
 3  2008     3    18     2     NA    10.9 
 4  2008     3    18     3     NA     9.58
 5  2008     3    18     4      8.17  8.17
 6  2008     3    18     5      7.04  7.04
 7  2008     3    18     6      6.08  6.08
 8  2008     3    18     7     NA     7.19
 9  2008     3    18     8     NA    12.8 
10  2008     3    18     9     NA    16.0 
# ℹ 14 more rows

f. Select only the following columns: Year, Month, Day and Temp

Show code
WHG_data_wide[351:374, ] %>% select(c(Year, Month, Day, Temp))

# A tibble: 24 × 4
    Year Month   Day  Temp
   <int> <int> <int> <dbl>
 1  2008     3    18 11.4 
 2  2008     3    18 11.2 
 3  2008     3    18 10.9 
 4  2008     3    18  9.58
 5  2008     3    18  8.17
 6  2008     3    18  7.04
 7  2008     3    18  6.08
 8  2008     3    18  7.19
 9  2008     3    18 12.8 
10  2008     3    18 16.0 
# ℹ 14 more rows

g. Sort the dataset by the Temp column, in descending order

Show code
WHG_data_wide[351:374, ] %>% arrange(desc(Temp))

# A tibble: 24 × 6
    Year Month   Day  Hour Temp_gaps  Temp
   <int> <int> <int> <int>     <dbl> <dbl>
 1  2008     3    18    15      NA    24.7
 2  2008     3    18    14      NA    24.1
 3  2008     3    18    13      NA    23.6
 4  2008     3    18    16      NA    23.6
 5  2008     3    18    12      23.1  23.1
 6  2008     3    18    17      NA    22.0
 7  2008     3    18    11      21.4  21.4
 8  2008     3    18    18      20.1  20.1
 9  2008     3    18    10      19.3  19.3
10  2008     3    18    19      16.9  16.9
# ℹ 14 more rows

2. For the Winter_hours_gaps dataset, write a for loop to convert all temperatures (Temp column) to degrees Fahrenheit

Show code
# I want this output to match the output from 1.g
WHG_JDay78 <- WHG_data_wide[351:374, ] %>% arrange(desc(Temp))

for (i in seq_len(nrow(WHG_JDay78))) 
{
  WHG_JDay78$Temp[i] <- WHG_JDay78$Temp[i] * 1.8 + 32
}

print(WHG_JDay78)

# A tibble: 24 × 6
    Year Month   Day  Hour Temp_gaps  Temp
   <int> <int> <int> <int>     <dbl> <dbl>
 1  2008     3    18    15      NA    76.5
 2  2008     3    18    14      NA    75.4
 3  2008     3    18    13      NA    74.6
 4  2008     3    18    16      NA    74.4
 5  2008     3    18    12      23.1  73.5
 6  2008     3    18    17      NA    71.6
 7  2008     3    18    11      21.4  70.5
 8  2008     3    18    18      20.1  68.2
 9  2008     3    18    10      19.3  66.8
10  2008     3    18    19      16.9  62.5
# ℹ 14 more rows

3. Execute the same operation with a function from the apply family

Show code
WHG_JDay78_function <- function(x)
 x * 1.8 + 32

# Apply function to Temp column only
WHG_data_wide$Temp <- sapply(WHG_data_wide$Temp, WHG_JDay78_function)

# Print in descending order
WHG_data_wide[351:374, ] %>% arrange(desc(Temp))

# A tibble: 24 × 6
    Year Month   Day  Hour Temp_gaps  Temp
   <int> <int> <int> <int>     <dbl> <dbl>
 1  2008     3    18    15      NA    76.5
 2  2008     3    18    14      NA    75.4
 3  2008     3    18    13      NA    74.6
 4  2008     3    18    16      NA    74.4
 5  2008     3    18    12      23.1  73.5
 6  2008     3    18    17      NA    71.6
 7  2008     3    18    11      21.4  70.5
 8  2008     3    18    18      20.1  68.2
 9  2008     3    18    10      19.3  66.8
10  2008     3    18    19      16.9  62.5
# ℹ 14 more rows
4. Now use the tidyverse function mutate to achieve the same outcome

Show code
# Call the WHG_data_wide again to run the original values
WHG_data_wide <- WHG_data_long %>% pivot_wider()

WHG_mutate <- WHG_data_wide[351:374, ] %>% 
  mutate(Temp_C = Temp, Temp_F = Temp * 1.8 + 32, Temp = NULL)

WHG_mutate <- WHG_mutate %>% 
  arrange(desc(Temp_F))

print(WHG_mutate)

# A tibble: 24 × 7
    Year Month   Day  Hour Temp_gaps Temp_C Temp_F
   <int> <int> <int> <int>     <dbl>  <dbl>  <dbl>
 1  2008     3    18    15      NA     24.7   76.5
 2  2008     3    18    14      NA     24.1   75.4
 3  2008     3    18    13      NA     23.6   74.6
 4  2008     3    18    16      NA     23.6   74.4
 5  2008     3    18    12      23.1   23.1   73.5
 6  2008     3    18    17      NA     22.0   71.6
 7  2008     3    18    11      21.4   21.4   70.5
 8  2008     3    18    18      20.1   20.1   68.2
 9  2008     3    18    10      19.3   19.3   66.8
10  2008     3    18    19      16.9   16.9   62.5
# ℹ 14 more rows
…
